…
We can parse, tidy up, and write the WiGiTS results into e.g. Parquet
format or a PostgreSQL database as follows:

- Parquet:

``` r
in_dir <- system.file("extdata/oa", package = "tidywigits")
out_dir <- tempdir() |> fs::dir_create("parquet_example")
w <- Wigits$new(in_dir)
res <- w$nemofy(diro = out_dir, format = "parquet", input_id = "parquet_example")
fs::dir_info(out_dir) |>
  dplyr::mutate(bname = basename(.data$path)) |>
  dplyr::select("bname", "size", "type")
# A tibble: 95 × 3
   bname                                         size type 
   <chr>                                  <fs::bytes> <fct>
 1 metadata.json                               12.34K file 
 2 sample1_2_sage_bqrtsv.parquet                4.17K file 
 3 sample1_alignments_dupfreq.parquet           2.84K file 
 4 sample1_amber_bafpcf.parquet                 4.32K file 
 5 sample1_amber_contaminationtsv.parquet       5.27K file 
 6 sample1_amber_homozygousregion.parquet       4.24K file 
 7 sample1_amber_qc.parquet                     3.28K file 
 8 sample1_bamtools_coverage.parquet            2.65K file 
 9 sample1_bamtools_exoncvg.parquet             3.96K file 
10 sample1_bamtools_flagstats.parquet           7.54K file 
# ℹ 85 more rows
```
…
